[gd_scene load_steps=3 format=2]

[ext_resource path="res://Assets/heart/full.png" type="Texture" id=1]
[ext_resource path="res://Scripts/PlayerHeart.gd" type="Script" id=2]

[node name="HBoxContainer" type="HBoxContainer"]
margin_right = 100.0
margin_bottom = 16.0
custom_constants/separation = 5
script = ExtResource( 2 )
__meta__ = {
"_edit_use_anchors_": false
}

[node name="TextureRect" type="TextureRect" parent="."]
margin_right = 16.0
margin_bottom = 16.0
texture = ExtResource( 1 )
stretch_mode = 3

[node name="TextureRect2" type="TextureRect" parent="."]
margin_left = 21.0
margin_right = 37.0
margin_bottom = 16.0
texture = ExtResource( 1 )
stretch_mode = 3

[node name="TextureRect3" type="TextureRect" parent="."]
margin_left = 42.0
margin_right = 58.0
margin_bottom = 16.0
texture = ExtResource( 1 )
stretch_mode = 3

[node name="TextureRect4" type="TextureRect" parent="."]
margin_left = 63.0
margin_right = 79.0
margin_bottom = 16.0
texture = ExtResource( 1 )
stretch_mode = 3

[node name="TextureRect5" type="TextureRect" parent="."]
margin_left = 84.0
margin_right = 100.0
margin_bottom = 16.0
texture = ExtResource( 1 )
stretch_mode = 3
